{
  "uuid": "0a411aab-03ef-456d-9f01-900bf4c6551d-tc-0-1018",
  "name": "Lab6.VeterinariansLoadingTest.VeterinariansLoading",
  "children": [
    "72e83858-3709-48ef-ad52-7868a8c82825-tr-0-1019"
  ],
  "befores": [
    {
      "name": "Setup",
      "status": "passed",
      "statusDetails": {
        "known": false,
        "muted": false,
        "flaky": false
      },
      "stage": "finished",
      "steps": [],
      "attachments": [],
      "parameters": [],
      "start": 1643279202795,
      "stop": 1643279202795
    }
  ],
  "afters": [
    {
      "name": "TearDown",
      "status": "passed",
      "statusDetails": {
        "known": false,
        "muted": false,
        "flaky": false
      },
      "stage": "finished",
      "steps": [],
      "attachments": [],
      "parameters": [],
      "start": 1643279202795,
      "stop": 1643279202795
    }
  ],
  "links": [],
  "start": 1643279192450,
  "stop": 1643279202796
}