{
  "uuid": "97fbcca9-88ad-45d2-b1b0-56cd2d745742-tc-0-1019",
  "name": "Lab7.EditPetTypeTest.EditPetType(\"Zubr\")",
  "children": [
    "40f07178-22cf-4527-a127-885ed9091fdc-tr-0-1020"
  ],
  "befores": [
    {
      "name": "Setup",
      "status": "failed",
      "statusDetails": {
        "known": false,
        "muted": false,
        "flaky": false,
        "message": "OpenQA.Selenium.WebDriverException : The HTTP request to the remote WebDriver server for URL http://localhost:4444/wd/hub/session timed out after 60 seconds.\r\n  ----> System.Threading.Tasks.TaskCanceledException : Отменена задача.\r\nTearDown : System.UnauthorizedAccessException : Отказано в доступе по пути \"C:\\Users\\Tina\\Desktop\\filesForUniv\\2021(4)\\labs\\Дроботун\\Lab6\\Lab4\\TestResults\".",
        "trace": "   в OpenQA.Selenium.Remote.HttpCommandExecutor.Execute(Command commandToExecute)\r\n   в OpenQA.Selenium.WebDriver.Execute(String driverCommandToExecute, Dictionary`2 parameters)\r\n   в OpenQA.Selenium.WebDriver.StartSession(ICapabilities desiredCapabilities)\r\n   в OpenQA.Selenium.WebDriver..ctor(ICommandExecutor executor, ICapabilities capabilities)\r\n   в OpenQA.Selenium.Remote.RemoteWebDriver..ctor(ICommandExecutor commandExecutor, ICapabilities desiredCapabilities)\r\n   в OpenQA.Selenium.Remote.RemoteWebDriver..ctor(Uri remoteAddress, ICapabilities desiredCapabilities, TimeSpan commandTimeout)\r\n   в OpenQA.Selenium.Remote.RemoteWebDriver..ctor(Uri remoteAddress, ICapabilities desiredCapabilities)\r\n   в Lab7.Tests.BaseTest.Setup() в C:\\Users\\Tina\\Desktop\\filesForUniv\\2021(4)\\labs\\Дроботун\\Lab7\\Lab4\\Tests\\BaseTest.cs:строка 19\r\n--TaskCanceledException\r\n   в System.Runtime.CompilerServices.TaskAwaiter.ThrowForNonSuccess(Task task)\r\n   в System.Runtime.CompilerServices.TaskAwaiter.HandleNonSuccessAndDebuggerNotification(Task task)\r\n   в System.Runtime.CompilerServices.TaskAwaiter`1.GetResult()\r\n   в OpenQA.Selenium.Remote.HttpCommandExecutor.<MakeHttpRequest>d__35.MoveNext()\r\n--- Конец трассировка стека из предыдущего расположения, где возникло исключение ---\r\n   в System.Runtime.CompilerServices.TaskAwaiter.ThrowForNonSuccess(Task task)\r\n   в System.Runtime.CompilerServices.TaskAwaiter.HandleNonSuccessAndDebuggerNotification(Task task)\r\n   в System.Runtime.CompilerServices.TaskAwaiter`1.GetResult()\r\n   в OpenQA.Selenium.Remote.HttpCommandExecutor.Execute(Command commandToExecute)\r\n--TearDown\r\n   в System.IO.__Error.WinIOError(Int32 errorCode, String maybeFullPath)\r\n   в System.IO.FileStream.Init(String path, FileMode mode, FileAccess access, Int32 rights, Boolean useRights, FileShare share, Int32 bufferSize, FileOptions options, SECURITY_ATTRIBUTES secAttrs, String msgPath, Boolean bFromProxy, Boolean useLongPath, Boolean checkHost)\r\n   в System.IO.FileStream..ctor(String path, FileMode mode, FileAccess access, FileShare share, Int32 bufferSize, FileOptions options, String msgPath, Boolean bFromProxy)\r\n   в System.IO.FileStream..ctor(String path, FileMode mode)\r\n   в OpenQA.Selenium.Screenshot.SaveAsFile(String fileName, ScreenshotImageFormat format)\r\n   в Lab7.Tests.BaseTest.TearDown() в C:\\Users\\Tina\\Desktop\\filesForUniv\\2021(4)\\labs\\Дроботун\\Lab7\\Lab4\\Tests\\BaseTest.cs:строка 46"
      },
      "stage": "finished",
      "steps": [],
      "attachments": [],
      "parameters": [],
      "start": 1643280409784,
      "stop": 1643280409784
    }
  ],
  "afters": [
    {
      "name": "TearDown",
      "status": "failed",
      "statusDetails": {
        "known": false,
        "muted": false,
        "flaky": false,
        "message": "OpenQA.Selenium.WebDriverException : The HTTP request to the remote WebDriver server for URL http://localhost:4444/wd/hub/session timed out after 60 seconds.\r\n  ----> System.Threading.Tasks.TaskCanceledException : Отменена задача.\r\nTearDown : System.UnauthorizedAccessException : Отказано в доступе по пути \"C:\\Users\\Tina\\Desktop\\filesForUniv\\2021(4)\\labs\\Дроботун\\Lab6\\Lab4\\TestResults\".",
        "trace": "   в OpenQA.Selenium.Remote.HttpCommandExecutor.Execute(Command commandToExecute)\r\n   в OpenQA.Selenium.WebDriver.Execute(String driverCommandToExecute, Dictionary`2 parameters)\r\n   в OpenQA.Selenium.WebDriver.StartSession(ICapabilities desiredCapabilities)\r\n   в OpenQA.Selenium.WebDriver..ctor(ICommandExecutor executor, ICapabilities capabilities)\r\n   в OpenQA.Selenium.Remote.RemoteWebDriver..ctor(ICommandExecutor commandExecutor, ICapabilities desiredCapabilities)\r\n   в OpenQA.Selenium.Remote.RemoteWebDriver..ctor(Uri remoteAddress, ICapabilities desiredCapabilities, TimeSpan commandTimeout)\r\n   в OpenQA.Selenium.Remote.RemoteWebDriver..ctor(Uri remoteAddress, ICapabilities desiredCapabilities)\r\n   в Lab7.Tests.BaseTest.Setup() в C:\\Users\\Tina\\Desktop\\filesForUniv\\2021(4)\\labs\\Дроботун\\Lab7\\Lab4\\Tests\\BaseTest.cs:строка 19\r\n--TaskCanceledException\r\n   в System.Runtime.CompilerServices.TaskAwaiter.ThrowForNonSuccess(Task task)\r\n   в System.Runtime.CompilerServices.TaskAwaiter.HandleNonSuccessAndDebuggerNotification(Task task)\r\n   в System.Runtime.CompilerServices.TaskAwaiter`1.GetResult()\r\n   в OpenQA.Selenium.Remote.HttpCommandExecutor.<MakeHttpRequest>d__35.MoveNext()\r\n--- Конец трассировка стека из предыдущего расположения, где возникло исключение ---\r\n   в System.Runtime.CompilerServices.TaskAwaiter.ThrowForNonSuccess(Task task)\r\n   в System.Runtime.CompilerServices.TaskAwaiter.HandleNonSuccessAndDebuggerNotification(Task task)\r\n   в System.Runtime.CompilerServices.TaskAwaiter`1.GetResult()\r\n   в OpenQA.Selenium.Remote.HttpCommandExecutor.Execute(Command commandToExecute)\r\n--TearDown\r\n   в System.IO.__Error.WinIOError(Int32 errorCode, String maybeFullPath)\r\n   в System.IO.FileStream.Init(String path, FileMode mode, FileAccess access, Int32 rights, Boolean useRights, FileShare share, Int32 bufferSize, FileOptions options, SECURITY_ATTRIBUTES secAttrs, String msgPath, Boolean bFromProxy, Boolean useLongPath, Boolean checkHost)\r\n   в System.IO.FileStream..ctor(String path, FileMode mode, FileAccess access, FileShare share, Int32 bufferSize, FileOptions options, String msgPath, Boolean bFromProxy)\r\n   в System.IO.FileStream..ctor(String path, FileMode mode)\r\n   в OpenQA.Selenium.Screenshot.SaveAsFile(String fileName, ScreenshotImageFormat format)\r\n   в Lab7.Tests.BaseTest.TearDown() в C:\\Users\\Tina\\Desktop\\filesForUniv\\2021(4)\\labs\\Дроботун\\Lab7\\Lab4\\Tests\\BaseTest.cs:строка 46"
      },
      "stage": "finished",
      "steps": [],
      "attachments": [],
      "parameters": [],
      "start": 1643280409785,
      "stop": 1643280409785
    }
  ],
  "links": [],
  "start": 1643280344064,
  "stop": 1643280409788
}