{
  "uuid": "4fdab8b6-8e73-4cfb-853c-45f9ecbc81ea-tr-0-1015",
  "historyId": "Lab6.SpecialtiesLoadingTest.SpecialtiesLoading",
  "fullName": "Lab6.SpecialtiesLoadingTest.SpecialtiesLoading",
  "labels": [
    {
      "name": "thread",
      "value": "NonParallelWorker"
    },
    {
      "name": "host",
      "value": "DESKTOP-JPJPG35"
    },
    {
      "name": "package",
      "value": "Lab6"
    },
    {
      "name": "testMethod",
      "value": "SpecialtiesLoading"
    },
    {
      "name": "testClass",
      "value": "SpecialtiesLoadingTest"
    },
    {
      "name": "tag",
      "value": "NUnit"
    },
    {
      "name": "suite",
      "value": "Specialty"
    }
  ],
  "links": [],
  "name": "SpecialtiesLoading",
  "status": "passed",
  "statusDetails": {
    "known": false,
    "muted": false,
    "flaky": false,
    "message": "SpecialtiesLoading"
  },
  "stage": "finished",
  "description": "This test checks that specialties page was loaded correctly\n",
  "steps": [
    {
      "name": "SpecialtiesLoading",
      "status": "passed",
      "statusDetails": {
        "known": false,
        "muted": false,
        "flaky": false
      },
      "stage": "finished",
      "steps": [],
      "attachments": [
        {
          "name": "Console Output",
          "source": "9163d499dd8c4bcaac5ff7fb38cfb921-attachment.txt",
          "type": "text/plain"
        }
      ],
      "parameters": [],
      "start": 1643279172360,
      "stop": 1643279182760
    }
  ],
  "attachments": [],
  "parameters": [],
  "start": 1643279172360,
  "stop": 1643279182760
}