{
  "uuid": "9ca8f395-467e-4a07-946e-bd769552e01d-tc-0-1006",
  "name": "Lab6.DeletePetTypeTest.DeletePetType",
  "children": [
    "6931b938-da4a-4d95-baf2-12199d0ae92a-tr-0-1007"
  ],
  "befores": [
    {
      "name": "Setup",
      "status": "passed",
      "statusDetails": {
        "known": false,
        "muted": false,
        "flaky": false
      },
      "stage": "finished",
      "steps": [],
      "attachments": [],
      "parameters": [],
      "start": 1643279134692,
      "stop": 1643279134692
    }
  ],
  "afters": [
    {
      "name": "TearDown",
      "status": "passed",
      "statusDetails": {
        "known": false,
        "muted": false,
        "flaky": false
      },
      "stage": "finished",
      "steps": [],
      "attachments": [],
      "parameters": [],
      "start": 1643279134692,
      "stop": 1643279134692
    }
  ],
  "links": [],
  "start": 1643279124553,
  "stop": 1643279134693
}