{
  "uuid": "ed20c540-7aba-4df9-8b5a-6f79d1112f0a-tc-0-1016",
  "name": "Lab6.TestOwnerInformationTest.TestOwnerInformation",
  "children": [
    "7567151c-8942-405a-9a1d-07966f8dd2ba-tr-0-1017"
  ],
  "befores": [
    {
      "name": "Setup",
      "status": "passed",
      "statusDetails": {
        "known": false,
        "muted": false,
        "flaky": false
      },
      "stage": "finished",
      "steps": [],
      "attachments": [],
      "parameters": [],
      "start": 1643279606557,
      "stop": 1643279606557
    }
  ],
  "afters": [
    {
      "name": "TearDown",
      "status": "passed",
      "statusDetails": {
        "known": false,
        "muted": false,
        "flaky": false
      },
      "stage": "finished",
      "steps": [],
      "attachments": [],
      "parameters": [],
      "start": 1643279606557,
      "stop": 1643279606557
    }
  ],
  "links": [],
  "start": 1643279594952,
  "stop": 1643279606559
}