{
  "uuid": "6931b938-da4a-4d95-baf2-12199d0ae92a-tr-0-1007",
  "historyId": "Lab6.DeletePetTypeTest.DeletePetType",
  "fullName": "Lab6.DeletePetTypeTest.DeletePetType",
  "labels": [
    {
      "name": "thread",
      "value": "NonParallelWorker"
    },
    {
      "name": "host",
      "value": "DESKTOP-JPJPG35"
    },
    {
      "name": "package",
      "value": "Lab6"
    },
    {
      "name": "testMethod",
      "value": "DeletePetType"
    },
    {
      "name": "testClass",
      "value": "DeletePetTypeTest"
    },
    {
      "name": "tag",
      "value": "NUnit"
    },
    {
      "name": "suite",
      "value": "Pet type"
    }
  ],
  "links": [],
  "name": "DeletePetType",
  "status": "passed",
  "statusDetails": {
    "known": false,
    "muted": false,
    "flaky": false,
    "message": "DeletePetType"
  },
  "stage": "finished",
  "description": "This test checks that pet type was deleted correctly\n",
  "steps": [
    {
      "name": "DeletePetType",
      "status": "passed",
      "statusDetails": {
        "known": false,
        "muted": false,
        "flaky": false
      },
      "stage": "finished",
      "steps": [],
      "attachments": [
        {
          "name": "Console Output",
          "source": "c56ff2777661432d90b2b89c636d0eb7-attachment.txt",
          "type": "text/plain"
        }
      ],
      "parameters": [],
      "start": 1643279124553,
      "stop": 1643279134692
    }
  ],
  "attachments": [],
  "parameters": [],
  "start": 1643279124553,
  "stop": 1643279134692
}