{
  "uuid": "b283cc9e-f66d-465f-88bc-a8bbf834ad8c-tc-0-1016",
  "name": "Lab6.TestOwnerInformationTest.TestOwnerInformation",
  "children": [
    "e203b80d-e53d-42f2-b3c9-fecfda414b89-tr-0-1017"
  ],
  "befores": [
    {
      "name": "Setup",
      "status": "passed",
      "statusDetails": {
        "known": false,
        "muted": false,
        "flaky": false
      },
      "stage": "finished",
      "steps": [],
      "attachments": [],
      "parameters": [],
      "start": 1643279192448,
      "stop": 1643279192448
    }
  ],
  "afters": [
    {
      "name": "TearDown",
      "status": "passed",
      "statusDetails": {
        "known": false,
        "muted": false,
        "flaky": false
      },
      "stage": "finished",
      "steps": [],
      "attachments": [],
      "parameters": [],
      "start": 1643279192448,
      "stop": 1643279192448
    }
  ],
  "links": [],
  "start": 1643279182761,
  "stop": 1643279192449
}