{
  "uuid": "4e479418-47db-404c-94a6-a7e0f5cc2e2a-tc-0-1019",
  "name": "Lab7.EditPetTypeTest.EditPetType(\"Cow\")",
  "children": [
    "f8f9ac9a-d1be-44d4-85e2-0e525d3448a5-tr-0-1022"
  ],
  "befores": [
    {
      "name": "Setup",
      "status": "passed",
      "statusDetails": {
        "known": false,
        "muted": false,
        "flaky": false
      },
      "stage": "finished",
      "steps": [],
      "attachments": [],
      "parameters": [],
      "start": 1643281160673,
      "stop": 1643281160673
    }
  ],
  "afters": [
    {
      "name": "TearDown",
      "status": "passed",
      "statusDetails": {
        "known": false,
        "muted": false,
        "flaky": false
      },
      "stage": "finished",
      "steps": [],
      "attachments": [],
      "parameters": [],
      "start": 1643281160673,
      "stop": 1643281160673
    }
  ],
  "links": [],
  "start": 1643281147637,
  "stop": 1643281160675
}