{
  "uuid": "412b075a-af62-4828-94af-4db9bee1bb8f-tr-0-1041",
  "historyId": "Lab7.VeterinariansLoadingTest.VeterinariansLoading(\"Veterans\")",
  "fullName": "Lab7.VeterinariansLoadingTest.VeterinariansLoading(\"Veterans\")",
  "labels": [
    {
      "name": "thread",
      "value": "ParallelWorker#1"
    },
    {
      "name": "host",
      "value": "DESKTOP-JPJPG35"
    },
    {
      "name": "package",
      "value": "Lab7"
    },
    {
      "name": "testMethod",
      "value": "VeterinariansLoading"
    },
    {
      "name": "testClass",
      "value": "VeterinariansLoadingTest"
    },
    {
      "name": "tag",
      "value": "NUnit"
    },
    {
      "name": "suite",
      "value": "Veterinarian"
    }
  ],
  "links": [],
  "name": "VeterinariansLoading(\"Veterans\")",
  "status": "failed",
  "statusDetails": {
    "known": false,
    "muted": false,
    "flaky": false,
    "message": "  Expected string length 8 but was 13. Strings differ at index 5.\r\n  Expected: \"Veterans\"\r\n  But was:  \"Veterinarians\"\r\n  ----------------^\r\n\r\nTearDown : System.UnauthorizedAccessException : Отказано в доступе по пути \"C:\\Users\\Tina\\Desktop\\filesForUniv\\2021(4)\\labs\\Дроботун\\Lab7\\Lab4\\TestResults\".",
    "trace": "   в Lab7.VeterinariansLoadingTest.VeterinariansLoading(String text) в C:\\Users\\Tina\\Desktop\\filesForUniv\\2021(4)\\labs\\Дроботун\\Lab7\\Lab4\\Tests\\VeterinariansLoadingTest.cs:строка 28\r\n\r\n--TearDown\r\n   в System.IO.__Error.WinIOError(Int32 errorCode, String maybeFullPath)\r\n   в System.IO.FileStream.Init(String path, FileMode mode, FileAccess access, Int32 rights, Boolean useRights, FileShare share, Int32 bufferSize, FileOptions options, SECURITY_ATTRIBUTES secAttrs, String msgPath, Boolean bFromProxy, Boolean useLongPath, Boolean checkHost)\r\n   в System.IO.FileStream..ctor(String path, FileMode mode, FileAccess access, FileShare share, Int32 bufferSize, FileOptions options, String msgPath, Boolean bFromProxy)\r\n   в System.IO.FileStream..ctor(String path, FileMode mode)\r\n   в OpenQA.Selenium.Screenshot.SaveAsFile(String fileName, ScreenshotImageFormat format)\r\n   в Lab7.Tests.BaseTest.TearDown() в C:\\Users\\Tina\\Desktop\\filesForUniv\\2021(4)\\labs\\Дроботун\\Lab7\\Lab4\\Tests\\BaseTest.cs:строка 46"
  },
  "stage": "finished",
  "description": "\nTearDown TearDown method failed\nThis test checks that veterinarians page was loaded correctly\n",
  "steps": [
    {
      "name": "VeterinariansLoading(\"Veterans\")",
      "status": "failed",
      "statusDetails": {
        "known": false,
        "muted": false,
        "flaky": false,
        "message": "  Expected string length 8 but was 13. Strings differ at index 5.\r\n  Expected: \"Veterans\"\r\n  But was:  \"Veterinarians\"\r\n  ----------------^\r\n\r\nTearDown : System.UnauthorizedAccessException : Отказано в доступе по пути \"C:\\Users\\Tina\\Desktop\\filesForUniv\\2021(4)\\labs\\Дроботун\\Lab7\\Lab4\\TestResults\".",
        "trace": "   в Lab7.VeterinariansLoadingTest.VeterinariansLoading(String text) в C:\\Users\\Tina\\Desktop\\filesForUniv\\2021(4)\\labs\\Дроботун\\Lab7\\Lab4\\Tests\\VeterinariansLoadingTest.cs:строка 28\r\n\r\n--TearDown\r\n   в System.IO.__Error.WinIOError(Int32 errorCode, String maybeFullPath)\r\n   в System.IO.FileStream.Init(String path, FileMode mode, FileAccess access, Int32 rights, Boolean useRights, FileShare share, Int32 bufferSize, FileOptions options, SECURITY_ATTRIBUTES secAttrs, String msgPath, Boolean bFromProxy, Boolean useLongPath, Boolean checkHost)\r\n   в System.IO.FileStream..ctor(String path, FileMode mode, FileAccess access, FileShare share, Int32 bufferSize, FileOptions options, String msgPath, Boolean bFromProxy)\r\n   в System.IO.FileStream..ctor(String path, FileMode mode)\r\n   в OpenQA.Selenium.Screenshot.SaveAsFile(String fileName, ScreenshotImageFormat format)\r\n   в Lab7.Tests.BaseTest.TearDown() в C:\\Users\\Tina\\Desktop\\filesForUniv\\2021(4)\\labs\\Дроботун\\Lab7\\Lab4\\Tests\\BaseTest.cs:строка 46"
      },
      "stage": "finished",
      "steps": [],
      "attachments": [
        {
          "name": "Console Output",
          "source": "03ea7f198bf14102acc5dab808a2152a-attachment.txt",
          "type": "text/plain"
        }
      ],
      "parameters": [],
      "start": 1643281036965,
      "stop": 1643281049222
    }
  ],
  "attachments": [],
  "parameters": [
    {
      "name": "Param #0",
      "value": "Veterans"
    }
  ],
  "start": 1643281036965,
  "stop": 1643281049222
}