{
  "uuid": "5e7f7043-c0e1-4915-95dd-f7a47bf812fc-tc-0-1010",
  "name": "Lab6.EditPetTypeTest.EditPetType",
  "children": [
    "2025b54a-f44a-4d1d-90a9-63b8c566d66a-tr-0-1011"
  ],
  "befores": [
    {
      "name": "Setup",
      "status": "passed",
      "statusDetails": {
        "known": false,
        "muted": false,
        "flaky": false
      },
      "stage": "finished",
      "steps": [],
      "attachments": [],
      "parameters": [],
      "start": 1643279160262,
      "stop": 1643279160262
    }
  ],
  "afters": [
    {
      "name": "TearDown",
      "status": "passed",
      "statusDetails": {
        "known": false,
        "muted": false,
        "flaky": false
      },
      "stage": "finished",
      "steps": [],
      "attachments": [],
      "parameters": [],
      "start": 1643279160262,
      "stop": 1643279160262
    }
  ],
  "links": [],
  "start": 1643279147463,
  "stop": 1643279160263
}