{
  "uuid": "cbfa4485-ffee-483c-a9c9-0554d3b0b2c2-tc-0-1034",
  "name": "Lab7.TestOwnerInformationTest.TestOwnerInformation(\"Owner Info\")",
  "children": [
    "82384b36-e189-444f-aad2-77e9671846c0-tr-0-1036"
  ],
  "befores": [
    {
      "name": "Setup",
      "status": "passed",
      "statusDetails": {
        "known": false,
        "muted": false,
        "flaky": false
      },
      "stage": "finished",
      "steps": [],
      "attachments": [],
      "parameters": [],
      "start": 1643280995421,
      "stop": 1643280995421
    }
  ],
  "afters": [
    {
      "name": "TearDown",
      "status": "failed",
      "statusDetails": {
        "known": false,
        "muted": false,
        "flaky": false,
        "message": "  Expected string length 10 but was 17. Strings differ at index 10.\r\n  Expected: \"Owner Info\"\r\n  But was:  \"Owner Information\"\r\n  ---------------------^\r\n\r\nTearDown : System.UnauthorizedAccessException : Отказано в доступе по пути \"C:\\Users\\Tina\\Desktop\\filesForUniv\\2021(4)\\labs\\Дроботун\\Lab7\\Lab4\\TestResults\".",
        "trace": "   в Lab7.TestOwnerInformationTest.TestOwnerInformation(String text) в C:\\Users\\Tina\\Desktop\\filesForUniv\\2021(4)\\labs\\Дроботун\\Lab7\\Lab4\\Tests\\TestOwnerInformationTest.cs:строка 31\r\n\r\n--TearDown\r\n   в System.IO.__Error.WinIOError(Int32 errorCode, String maybeFullPath)\r\n   в System.IO.FileStream.Init(String path, FileMode mode, FileAccess access, Int32 rights, Boolean useRights, FileShare share, Int32 bufferSize, FileOptions options, SECURITY_ATTRIBUTES secAttrs, String msgPath, Boolean bFromProxy, Boolean useLongPath, Boolean checkHost)\r\n   в System.IO.FileStream..ctor(String path, FileMode mode, FileAccess access, FileShare share, Int32 bufferSize, FileOptions options, String msgPath, Boolean bFromProxy)\r\n   в System.IO.FileStream..ctor(String path, FileMode mode)\r\n   в OpenQA.Selenium.Screenshot.SaveAsFile(String fileName, ScreenshotImageFormat format)\r\n   в Lab7.Tests.BaseTest.TearDown() в C:\\Users\\Tina\\Desktop\\filesForUniv\\2021(4)\\labs\\Дроботун\\Lab7\\Lab4\\Tests\\BaseTest.cs:строка 46"
      },
      "stage": "finished",
      "steps": [],
      "attachments": [],
      "parameters": [],
      "start": 1643280995421,
      "stop": 1643280995421
    }
  ],
  "links": [],
  "start": 1643280984380,
  "stop": 1643280995425
}