{
  "uuid": "bf0df929-58d4-47c7-b8f1-2d6444349e61-tr-0-1022",
  "historyId": "Lab7.EditPetTypeTest.EditPetType(\"Cow\")",
  "fullName": "Lab7.EditPetTypeTest.EditPetType(\"Cow\")",
  "labels": [
    {
      "name": "thread",
      "value": "ParallelWorker#7"
    },
    {
      "name": "host",
      "value": "DESKTOP-JPJPG35"
    },
    {
      "name": "package",
      "value": "Lab7"
    },
    {
      "name": "testMethod",
      "value": "EditPetType"
    },
    {
      "name": "testClass",
      "value": "EditPetTypeTest"
    },
    {
      "name": "tag",
      "value": "NUnit"
    },
    {
      "name": "suite",
      "value": "Pet type"
    }
  ],
  "links": [],
  "name": "EditPetType(\"Cow\")",
  "status": "failed",
  "statusDetails": {
    "known": false,
    "muted": false,
    "flaky": false,
    "message": "OpenQA.Selenium.NoSuchElementException : no such element: Unable to locate element: {\"method\":\"css selector\",\"selector\":\"tr:nth-child(1) .editPet\"}\n  (Session info: chrome=95.0.4638.54)\r\nTearDown : System.UnauthorizedAccessException : Отказано в доступе по пути \"C:\\Users\\Tina\\Desktop\\filesForUniv\\2021(4)\\labs\\Дроботун\\Lab7\\Lab4\\TestResults\".",
    "trace": "   в OpenQA.Selenium.WebDriver.UnpackAndThrowOnError(Response errorResponse)\r\n   в OpenQA.Selenium.WebDriver.Execute(String driverCommandToExecute, Dictionary`2 parameters)\r\n   в OpenQA.Selenium.WebDriver.FindElement(String mechanism, String value)\r\n   в OpenQA.Selenium.By.<.ctor>b__11_0(ISearchContext context)\r\n   в OpenQA.Selenium.By.FindElement(ISearchContext context)\r\n   в OpenQA.Selenium.WebDriver.FindElement(By by)\r\n   в Lab7.PageObjects.PetTypePageObject.EditPetType(String name) в C:\\Users\\Tina\\Desktop\\filesForUniv\\2021(4)\\labs\\Дроботун\\Lab7\\Lab4\\PageObjects\\PetTypePageObject.cs:строка 20\r\n   в Lab7.EditPetTypeTest.EditPetType(String name) в C:\\Users\\Tina\\Desktop\\filesForUniv\\2021(4)\\labs\\Дроботун\\Lab7\\Lab4\\Tests\\EditPetTypeTest.cs:строка 29\r\n--TearDown\r\n   в System.IO.__Error.WinIOError(Int32 errorCode, String maybeFullPath)\r\n   в System.IO.FileStream.Init(String path, FileMode mode, FileAccess access, Int32 rights, Boolean useRights, FileShare share, Int32 bufferSize, FileOptions options, SECURITY_ATTRIBUTES secAttrs, String msgPath, Boolean bFromProxy, Boolean useLongPath, Boolean checkHost)\r\n   в System.IO.FileStream..ctor(String path, FileMode mode, FileAccess access, FileShare share, Int32 bufferSize, FileOptions options, String msgPath, Boolean bFromProxy)\r\n   в System.IO.FileStream..ctor(String path, FileMode mode)\r\n   в OpenQA.Selenium.Screenshot.SaveAsFile(String fileName, ScreenshotImageFormat format)\r\n   в Lab7.Tests.BaseTest.TearDown() в C:\\Users\\Tina\\Desktop\\filesForUniv\\2021(4)\\labs\\Дроботун\\Lab7\\Lab4\\Tests\\BaseTest.cs:строка 46"
  },
  "stage": "finished",
  "description": "\nTearDown TearDown method failed\nThis test checks that pet type was edited correctly\n",
  "steps": [
    {
      "name": "EditPetType(\"Cow\")",
      "status": "failed",
      "statusDetails": {
        "known": false,
        "muted": false,
        "flaky": false,
        "message": "OpenQA.Selenium.NoSuchElementException : no such element: Unable to locate element: {\"method\":\"css selector\",\"selector\":\"tr:nth-child(1) .editPet\"}\n  (Session info: chrome=95.0.4638.54)\r\nTearDown : System.UnauthorizedAccessException : Отказано в доступе по пути \"C:\\Users\\Tina\\Desktop\\filesForUniv\\2021(4)\\labs\\Дроботун\\Lab7\\Lab4\\TestResults\".",
        "trace": "   в OpenQA.Selenium.WebDriver.UnpackAndThrowOnError(Response errorResponse)\r\n   в OpenQA.Selenium.WebDriver.Execute(String driverCommandToExecute, Dictionary`2 parameters)\r\n   в OpenQA.Selenium.WebDriver.FindElement(String mechanism, String value)\r\n   в OpenQA.Selenium.By.<.ctor>b__11_0(ISearchContext context)\r\n   в OpenQA.Selenium.By.FindElement(ISearchContext context)\r\n   в OpenQA.Selenium.WebDriver.FindElement(By by)\r\n   в Lab7.PageObjects.PetTypePageObject.EditPetType(String name) в C:\\Users\\Tina\\Desktop\\filesForUniv\\2021(4)\\labs\\Дроботун\\Lab7\\Lab4\\PageObjects\\PetTypePageObject.cs:строка 20\r\n   в Lab7.EditPetTypeTest.EditPetType(String name) в C:\\Users\\Tina\\Desktop\\filesForUniv\\2021(4)\\labs\\Дроботун\\Lab7\\Lab4\\Tests\\EditPetTypeTest.cs:строка 29\r\n--TearDown\r\n   в System.IO.__Error.WinIOError(Int32 errorCode, String maybeFullPath)\r\n   в System.IO.FileStream.Init(String path, FileMode mode, FileAccess access, Int32 rights, Boolean useRights, FileShare share, Int32 bufferSize, FileOptions options, SECURITY_ATTRIBUTES secAttrs, String msgPath, Boolean bFromProxy, Boolean useLongPath, Boolean checkHost)\r\n   в System.IO.FileStream..ctor(String path, FileMode mode, FileAccess access, FileShare share, Int32 bufferSize, FileOptions options, String msgPath, Boolean bFromProxy)\r\n   в System.IO.FileStream..ctor(String path, FileMode mode)\r\n   в OpenQA.Selenium.Screenshot.SaveAsFile(String fileName, ScreenshotImageFormat format)\r\n   в Lab7.Tests.BaseTest.TearDown() в C:\\Users\\Tina\\Desktop\\filesForUniv\\2021(4)\\labs\\Дроботун\\Lab7\\Lab4\\Tests\\BaseTest.cs:строка 46"
      },
      "stage": "finished",
      "steps": [],
      "attachments": [
        {
          "name": "Console Output",
          "source": "630259f332334f32a45d382011838bf6-attachment.txt",
          "type": "text/plain"
        }
      ],
      "parameters": [],
      "start": 1643280814627,
      "stop": 1643280836338
    }
  ],
  "attachments": [],
  "parameters": [
    {
      "name": "Param #0",
      "value": "Cow"
    }
  ],
  "start": 1643280814627,
  "stop": 1643280836338
}